t,a,b
0,100,100
1,100,100
2,100,100
3,100,100
4,99,101
5,98,102
6,94,106
7,89,111
8,82,118
9,70,130
10,67,133
11,63,137
12,55,145
13,52,148
14,46,154
15,39,161
16,38,162
17,39,161
18,37,163
19,32,168
20,29,171
21,29,171
22,27,173
23,24,176
24,17,183
25,15,185
26,9,191
27,7,193
28,6,194
29,6,194
30,6,194
31,8,192
32,6,194
33,7,193
34,7,193
35,8,192
36,8,192
37,8,192
38,8,192
39,7,193
40,5,195
41,4,196
42,4,196
43,3,197
44,3,197
45,3,197
46,2,198
47,2,198
48,2,198
49,2,198
50,1,199
51,1,199
52,0,200
53,0,200
54,0,200
55,0,200
56,0,200
57,0,200
58,0,200
59,0,200
60,0,200
61,0,200
62,0,200
63,0,200
64,0,200
65,0,200
66,0,200
67,0,200
68,0,200
69,0,200
70,0,200
71,0,200
72,0,200
73,0,200
74,0,200
75,0,200
76,0,200
77,0,200
78,0,200
79,0,200
80,0,200
81,0,200
82,0,200
83,0,200
84,0,200
85,0,200
86,0,200
87,0,200
88,0,200
89,0,200
90,0,200
91,0,200
92,0,200
93,0,200
94,0,200
95,0,200
96,0,200
97,0,200
98,0,200
99,0,200