t,a,b
0,100,100
1,100,100
2,100,100
3,100,100
4,100,100
5,100,100
6,99,101
7,95,105
8,92,108
9,89,111
10,81,119
11,71,129
12,64,136
13,60,140
14,54,146
15,52,148
16,56,144
17,54,146
18,44,156
19,41,159
20,38,162
21,37,163
22,35,165
23,29,171
24,28,172
25,27,173
26,25,175
27,21,179
28,21,179
29,17,183
30,17,183
31,15,185
32,15,185
33,15,185
34,13,187
35,10,190
36,10,190
37,7,193
38,6,194
39,6,194
40,4,196
41,4,196
42,3,197
43,3,197
44,2,198
45,2,198
46,1,199
47,0,200
48,0,200
49,0,200
50,0,200
51,0,200
52,0,200
53,0,200
54,0,200
55,0,200
56,0,200
57,0,200
58,0,200
59,0,200
60,0,200
61,0,200
62,0,200
63,0,200
64,0,200
65,0,200
66,0,200
67,0,200
68,0,200
69,0,200
70,0,200
71,0,200
72,0,200
73,0,200
74,0,200
75,0,200
76,0,200
77,0,200
78,0,200
79,0,200
80,0,200
81,0,200
82,0,200
83,0,200
84,0,200
85,0,200
86,0,200
87,0,200
88,0,200
89,0,200
90,0,200
91,0,200
92,0,200
93,0,200
94,0,200
95,0,200
96,0,200
97,0,200
98,0,200
99,0,200